// Jest Snapshot v1, https://goo.gl/fbAQLP

exports[`NugetInstallation renders all the messages 1`] = `
<div>
  <installation-title-stub
    options="[object Object]"
    packagetype="nuget"
  />
   
  <code-instruction-stub
    copytext="Copy NuGet Command"
    instruction="nuget install @gitlab-org/package-15 -Source \\"GitLab\\""
    label="NuGet Command"
    trackingaction="copy_nuget_install_command"
    trackinglabel="code_instruction"
  />
   
  <h3
    class="gl-font-lg"
  >
    Registry setup
  </h3>
   
  <code-instruction-stub
    copytext="Copy NuGet Setup Command"
    instruction="nuget source Add -Name \\"GitLab\\" -Source \\"nugetPath\\" -UserName <your_username> -Password <your_token>"
    label="Add NuGet Source"
    trackingaction="copy_nuget_setup_command"
    trackinglabel="code_instruction"
  />
   For more information on the NuGet registry, 
  <gl-link-stub
    href="/help/user/packages/nuget_repository/index"
    target="_blank"
  >
    see the documentation
  </gl-link-stub>
  .
</div>
`;
